Day 2
…
---

## .sav (SPSS)

```r
## install readxl package if not already
if (!requireNamespace("haven", quietly = TRUE)) {
  install.packages("haven")
}
## read spss (sav) file
d <- haven::read_spss("data/sav.sav")
d
#> # A tibble: 32 x 2
#>    toxin yield
#>    <dbl> <dbl>
#>  1    11     4
#>  2    19     4
#>  3    13     4
#>  4    13     4
#>  5    12     4
#>  6    17     4
#>  7    13     4
#>  8    18     4
#>  9    18     4
#> 10    17     4
#> # … with 22 more rows
```
…
---

## rds (R)

```r
## my favorite
d <- readRDS("data/rds.rds")
d
#> # A tibble: 88 x 18
#>    expertise   MR1   MR2   MR3   MR4   MR6   MR7   MR8   MR9   MR5  MR10
#>    <chr>     <dbl> <dbl> <dbl> <dbl> <dbl> <dbl> <dbl> <dbl> <dbl> <dbl>
#>  1 news pre…  0.99     0     0     0     0     0     0     0     0     0
#>  2 page lay…  0.99     0     0     0     0     0     0     0     0     0
#>  3 history …  0.99     0     0     0     0     0     0     0     0     0
#>  4 databases  0.99     0     0     0     0     0     0     0     0     0
#>  5 graphic …  0.99     0     0     0     0     0     0     0     0     0
#>  6 programm…  0.99     0     0     0     0     0     0     0     0     0
#>  7 practice…  0.99     0     0     0     0     0     0     0     0     0
#>  8 data vis…  0.99     0     0     0     0     0     0     0     0     0
#>  9 data-dri…  0.99     0     0     0     0     0     0     0     0     0
#> 10 data jou…  0.99     0     0     0     0     0     0     0     0     0
#> # … with 78 more rows, and 7 more variables: MR13 <dbl>, MR11 <dbl>,
#> #   MR14 <dbl>, MR12 <dbl>, MR15 <dbl>, MR16 <dbl>, var <fct>
```
…
